[{
  "id": 1,
  "fecha": "2/3/2019",
  "importe": 84,
  "latitud": 38.913307,
  "loguitud": 115.484517
}, {
  "id": 2,
  "fecha": "9/19/2018",
  "importe": 86,
  "latitud": 48.8708001,
  "loguitud": 2.166848
}, {
  "id": 3,
  "fecha": "8/18/2018",
  "importe": 88,
  "latitud": 51.1644956,
  "loguitud": 18.2903712
}, {
  "id": 4,
  "fecha": "7/20/2018",
  "importe": 19,
  "latitud": 34.4198488,
  "loguitud": 70.4729434
}, {
  "id": 5,
  "fecha": "6/25/2018",
  "importe": 88,
  "latitud": 55.830186,
  "loguitud": 37.4457899
}, {
  "id": 6,
  "fecha": "4/18/2019",
  "importe": 19,
  "latitud": 59.4018083,
  "loguitud": 17.8046531
}, {
  "id": 7,
  "fecha": "1/31/2018",
  "importe": 20,
  "latitud": -3.6553932,
  "loguitud": 128.1907723
}, {
  "id": 8,
  "fecha": "6/27/2019",
  "importe": 17,
  "latitud": 29.155723,
  "loguitud": 108.752195
}, {
  "id": 9,
  "fecha": "6/29/2018",
  "importe": 45,
  "latitud": 51.7118861,
  "loguitud": 22.9024512
}, {
  "id": 10,
  "fecha": "5/25/2019",
  "importe": 16,
  "latitud": 50.483457,
  "loguitud": 3.003076
}]
